%!PS-Adobe-3.0 EPSF-3.0
%%Creator: cairo 1.14.6 (http://cairographics.org)
%%CreationDate: Mon Sep 24 12:03:37 2018
%%Pages: 1
%%DocumentData: Clean7Bit
%%LanguageLevel: 2
%%BoundingBox: 0 0 384 93
%%EndComments
%%BeginProlog
save
50 dict begin
/q { gsave } bind def
/Q { grestore } bind def
/cm { 6 array astore concat } bind def
/w { setlinewidth } bind def
/J { setlinecap } bind def
/j { setlinejoin } bind def
/M { setmiterlimit } bind def
/d { setdash } bind def
/m { moveto } bind def
/l { lineto } bind def
/c { curveto } bind def
/h { closepath } bind def
/re { exch dup neg 3 1 roll 5 3 roll moveto 0 rlineto
      0 exch rlineto 0 rlineto closepath } bind def
/S { stroke } bind def
/f { fill } bind def
/f* { eofill } bind def
/n { newpath } bind def
/W { clip } bind def
/W* { eoclip } bind def
/BT { } bind def
/ET { } bind def
/pdfmark where { pop globaldict /?pdfmark /exec load put }
    { globaldict begin /?pdfmark /pop load def /pdfmark
    /cleartomark load def end } ifelse
/BDC { mark 3 1 roll /BDC pdfmark } bind def
/EMC { mark /EMC pdfmark } bind def
/cairo_store_point { /cairo_point_y exch def /cairo_point_x exch def } def
/Tj { show currentpoint cairo_store_point } bind def
/TJ {
  {
    dup
    type /stringtype eq
    { show } { -0.001 mul 0 cairo_font_matrix dtransform rmoveto } ifelse
  } forall
  currentpoint cairo_store_point
} bind def
/cairo_selectfont { cairo_font_matrix aload pop pop pop 0 0 6 array astore
    cairo_font exch selectfont cairo_point_x cairo_point_y moveto } bind def
/Tf { pop /cairo_font exch def /cairo_font_matrix where
      { pop cairo_selectfont } if } bind def
/Td { matrix translate cairo_font_matrix matrix concatmatrix dup
      /cairo_font_matrix exch def dup 4 get exch 5 get cairo_store_point
      /cairo_font where { pop cairo_selectfont } if } bind def
/Tm { 2 copy 8 2 roll 6 array astore /cairo_font_matrix exch def
      cairo_store_point /cairo_font where { pop cairo_selectfont } if } bind def
/g { setgray } bind def
/rg { setrgbcolor } bind def
/d1 { setcachedevice } bind def
%%EndProlog
%%BeginSetup
%%EndSetup
%%Page: 1 1
%%BeginPageSetup
%%PageBoundingBox: 0 0 384 93
%%EndPageSetup
q 0 0 384 93 rectclip q
0 g
100.223 0.492 m 92.5 1.688 87.484 6.16 85.562 13.562 c 84.641 17.105 84.934
 23.918 86.141 27.074 c 87.844 31.535 90.562 34.566 94.703 36.621 c 99.91
 39.203 106.68 39.191 112.18 36.59 c 114.441 35.52 117.715 32.559 118.664
 30.723 c 119.219 29.648 l 115.078 27.496 l 111.27 25.52 110.918 25.402 
110.703 26.078 c 110.297 27.355 107.242 29.863 105.75 30.145 c 101.945 30.855
 98.91 29.363 97.191 25.926 c 96.457 24.457 96.219 23.301 96.102 20.574 
c 95.762 12.836 98.672 8.637 104.375 8.621 c 107.375 8.613 109.469 9.699
 110.879 11.992 c 111.402 12.844 111.961 13.547 112.125 13.551 c 112.562
 13.566 119.254 10.16 119.254 9.926 c 119.254 8.48 114.633 3.852 111.723
 2.375 c 108.164 0.574 104.047 -0.102 100.223 0.492 c h
100.223 0.492 m f
144.371 37.949 m 141.719 38.586 136.059 38.578 133.332 37.938 c 128.375
 36.773 123.832 33.328 121.691 29.098 c 118.852 23.496 118.977 14.949 121.977
 9.32 c 124.121 5.293 128.648 1.996 133.336 1.055 c 134.484 0.82 135.77 
0.551 136.191 0.453 c 137.48 0.156 143.316 0.594 145.324 1.133 c 152.383
 3.043 156.996 8.441 158.078 16.059 c 159.633 27.02 154.27 35.586 144.371
 37.949 c h
142.387 9.207 m 140.34 8.352 136.914 8.445 134.969 9.41 c 131.75 11.004
 130.016 15.316 130.391 20.801 c 130.621 24.16 131.387 26.211 133.066 27.961
 c 134.68 29.633 136.391 30.312 138.996 30.301 c 142.762 30.285 145.121 
28.715 146.703 25.164 c 147.391 23.621 147.547 22.586 147.535 19.652 c 147.516
 13.945 145.902 10.676 142.387 9.207 c h
142.387 9.207 m f
293.379 38.449 m 287.609 38.449 283.031 36.82 279.488 33.508 c 274.012 
28.387 272.465 17.898 276.051 10.23 c 278.238 5.559 282.684 2.105 287.879
 1.051 c 289.02 0.816 290.297 0.551 290.715 0.457 c 291.996 0.164 297.828
 0.609 299.906 1.156 c 308.094 3.324 312.789 10.105 312.703 19.652 c 312.605
 31.441 305.398 38.449 293.379 38.449 c h
301.965 17.367 m 301.398 13.066 299.922 10.566 297.23 9.344 c 293.629 7.707
 288.75 8.805 286.852 11.676 c 283.121 17.316 284.602 27.141 289.547 29.535
 c 292.492 30.961 296.973 30.387 299.215 28.293 c 301.398 26.258 302.539
 21.73 301.965 17.367 c h
301.965 17.367 m f
363.41 0.508 m 359.488 1.027 355.781 2.688 352.27 5.496 c 349.887 7.406
 l 353.168 10.285 l 356.453 13.164 l 358.027 11.914 l 361.391 9.242 364.191
 8.188 367.914 8.188 c 371.992 8.188 374.332 9.797 373.73 12.195 c 373.379
 13.586 371.938 14.191 365.508 15.656 c 362.395 16.363 358.984 17.316 357.926
 17.77 c 352.848 19.957 350.957 25.355 353.332 30.902 c 355.387 35.695 360.609
 38.453 367.598 38.438 c 372.602 38.426 377.703 36.996 381.934 34.41 c 383.711
 33.328 l 380.414 30.129 l 377.113 26.934 l 376.16 27.797 l 373.547 30.172
 366.691 31.5 364.145 30.129 c 361.895 28.918 362.125 26.543 364.594 25.512
 c 365.312 25.211 367.824 24.547 370.176 24.035 c 378.547 22.211 381.262
 20.883 383.004 17.746 c 384.281 15.445 384.344 10.848 383.133 8.176 c 382.168
 6.047 379.816 3.609 377.672 2.516 c 374.098 0.695 368.227 -0.133 363.41
 0.508 c h
363.41 0.508 m f
73.391 63.234 m 66.699 73.297 55.863 79.762 43.773 80.906 c 31.367 82.078
 19.703 77.824 11.348 69.078 c 6.254 63.746 2.926 57.797 0.977 50.531 c 
0.113 47.32 -0.008 46.133 0 40.965 c 0.008 35.812 0.137 34.586 1.016 31.262
 c 4.863 16.762 16.176 5.633 30.762 2 c 32.016 1.688 33.559 1.359 34.188
 1.273 c 36.965 0.891 43.688 1.051 46.68 1.574 c 59.008 3.723 69.961 11.676
 75.578 22.559 c 82.141 35.258 81.27 51.383 73.391 63.234 c h
71.754 32.547 m 68.535 20.613 58.734 11.504 46.367 8.953 c 27.086 4.973
 8.297 19.562 7.098 39.445 c 6.324 52.285 14.102 65.172 26.039 70.828 c 
30.559 72.969 34.199 73.754 39.707 73.773 c 45.004 73.789 47.945 73.246 
52.566 71.395 c 61.844 67.68 69.117 59.266 71.793 49.152 c 72.91 44.922 
72.891 36.766 71.754 32.547 c h
71.754 32.547 m f
24.25 29.402 m 20.602 30.695 17.801 34.492 17.309 38.82 c 16.578 45.234
 18.992 50.215 23.91 52.449 c 26.578 53.66 31.422 53.633 34.297 52.387 c
 36.043 51.633 39.328 48.668 39.328 47.844 c 39.328 47.711 38.191 47.039
 36.809 46.359 c 34.289 45.117 l 32.945 46.461 l 32.195 47.211 31.051 47.91
 30.352 48.039 c 28.621 48.367 26.551 47.594 25.613 46.277 c 24.066 44.102
 23.957 38.41 25.426 36.172 c 26.188 35.012 27.465 34.195 28.672 34.105 
c 31.207 33.91 31.848 34.129 33.348 35.707 c 34.859 37.297 l 36.809 36.223
 l 37.883 35.633 38.914 35.012 39.102 34.84 c 39.762 34.246 36.746 31.168
 34.32 29.957 c 32.258 28.926 31.609 28.789 28.898 28.816 c 27.199 28.832
 25.109 29.098 24.25 29.402 c h
24.25 29.402 m f
47.465 29.402 m 43.867 30.68 41.117 34.355 40.527 38.68 c 39.668 44.941
 42.195 50.207 47.129 52.449 c 49.992 53.746 54.844 53.648 57.746 52.227
 c 59.543 51.348 62.543 48.594 62.543 47.82 c 62.543 47.691 61.367 47.012
 59.93 46.316 c 57.316 45.051 l 55.961 46.527 l 54.746 47.859 54.422 48.008
 52.754 48.008 c 50.461 48.008 48.984 47.105 48.188 45.215 c 47.477 43.527
 47.387 39.387 48.02 37.5 c 49.312 33.664 54.027 32.754 56.703 35.824 c 
57.906 37.207 l 60.227 36.035 l 61.5 35.391 62.543 34.754 62.543 34.621 
c 62.543 33.754 59.547 30.961 57.531 29.957 c 55.469 28.926 54.82 28.789
 52.109 28.816 c 50.418 28.832 48.328 29.098 47.465 29.402 c h
47.465 29.402 m f
160.738 19.461 m 160.738 37.539 l 171.395 37.539 l 171.395 34.934 l 173.574
 36.246 l 176.469 37.988 178.211 38.445 181.859 38.426 c 185.5 38.402 187.637
 37.594 190.016 35.328 c 191.617 33.805 l 192.883 34.914 l 195.707 37.395
 200.898 38.922 204.891 38.445 c 209.152 37.938 211.883 36.383 213.359 33.617
 c 214.199 32.055 214.215 31.734 214.324 16.703 c 214.438 1.383 l 203.785
 1.383 l 203.672 13.848 l 203.566 24.91 203.48 26.449 202.883 27.543 c 201.047
 30.902 195.492 30.688 193.586 27.184 c 192.977 26.07 192.887 24.59 192.773
 13.656 c 192.645 1.383 l 182.051 1.383 l 182.051 13.961 l 182.051 27.77
 181.984 28.211 179.781 29.352 c 178.199 30.168 175.273 30.086 173.793 29.184
 c 171.438 27.746 171.395 27.461 171.395 13.77 c 171.395 1.383 l 160.738
 1.383 l h
160.738 19.461 m f
217.828 19.461 m 217.828 37.539 l 228.484 37.539 l 228.484 34.43 l 229.719
 35.469 l 232.449 37.762 237.492 39.027 241.199 38.34 c 244.086 37.809 245.746
 36.977 247.402 35.223 c 248.781 33.77 l 250.16 34.863 l 253.855 37.789 
258.457 39.062 262.82 38.367 c 265.922 37.871 267.691 37.098 269.223 35.57
 c 271.684 33.109 271.672 33.191 271.801 16.516 c 271.914 1.387 l 261.273
 1.387 l 261.145 13.66 l 261.004 27.348 260.867 28.164 258.52 29.375 c 256.633
 30.352 253.527 29.98 252.094 28.609 c 250.414 27 250.18 25.062 250.18 12.594
 c 250.18 1.387 l 239.559 1.387 l 239.445 14.23 l 239.344 25.855 239.27 
27.172 238.648 28.086 c 237.691 29.5 236.094 30.059 233.598 29.852 c 230.941
 29.633 229.332 28.223 228.84 25.695 c 228.664 24.781 228.512 18.938 228.504
 12.711 c 228.488 1.387 l 217.832 1.387 l 217.832 19.461 l h
217.828 19.461 m f
315.645 19.461 m 315.645 37.539 l 326.301 37.539 l 326.301 34.43 l 327.457
 35.406 l 332.504 39.648 342.547 39.5 345.879 35.129 c 347.879 32.512 347.996
 31.441 347.996 15.785 c 347.996 1.383 l 337.34 1.383 l 337.34 13.766 l 
337.34 27.414 337.219 28.238 335.105 29.336 c 333.367 30.234 330.48 30.105
 328.926 29.059 c 326.543 27.457 326.504 27.219 326.371 13.66 c 326.246 
1.387 l 315.648 1.387 l 315.648 19.461 l h
315.645 19.461 m f
101.172 42.355 m 95.055 42.922 89.535 46.406 87.102 51.242 c 85.086 55.246
 84.359 62.707 85.551 67.18 c 87.164 73.238 91.465 77.895 97.02 79.602 c
 103.266 81.52 110.762 80.258 115.32 76.52 c 116.809 75.305 119.52 71.891
 119.195 71.645 c 118.664 71.242 111.555 67.609 111.301 67.609 c 111.125
 67.609 110.531 68.293 109.977 69.125 c 107.227 73.285 100.562 73.266 97.855
 69.094 c 96.457 66.938 95.902 64.141 96.105 60.289 c 96.422 54.23 99.008
 50.895 103.641 50.559 c 104.855 50.469 106.457 50.598 107.199 50.844 c 
108.449 51.258 110.496 53.18 111.5 54.891 c 111.91 55.59 112.098 55.539 
115.59 53.816 c 117.605 52.824 119.254 51.863 119.254 51.684 c 119.254 51.105
 117.137 48.43 115.555 47.008 c 111.777 43.605 106.414 41.871 101.172 42.355
 c h
101.172 42.355 m f
179.008 59.234 m 179.008 60.914 l 179.008 63.246 178.09 67.781 177.129 
70.219 c 174.672 76.434 169.73 79.961 162.848 80.422 c 159.344 80.652 155.195
 79.922 152.41 78.578 c 148.613 76.75 145.285 72.168 144.168 67.227 c 141.195
 54.102 146.938 44.023 158.262 42.492 c 165.75 41.484 173.121 44.227 176.973
 49.461 c 177.895 50.715 178.598 51.895 178.535 52.086 c 178.473 52.281 
176.754 53.324 174.723 54.406 c 171.027 56.379 l 168.66 53.758 l 166.023
 50.84 164.664 50.098 161.988 50.109 c 157.609 50.129 154.945 52.73 154.094
 57.809 c 153.852 59.234 l h
153.793 65.707 m 154.039 66.938 l 155.016 71.812 160.996 74.266 165.227
 71.523 c 166.84 70.477 167.785 69.008 168.211 66.879 c 168.445 65.707 l
 h
153.793 65.707 m f
214.559 43.918 m 214.391 44.281 214.152 50.918 214.027 58.664 c 213.809
 72.422 213.785 72.789 212.914 74.566 c 211.082 78.312 207.309 80.047 200.152
 80.43 c 193.375 80.793 188.988 79.715 185.906 76.93 c 184.277 75.461 182.812
 72.305 182.812 70.258 c 182.812 69.133 l 193.004 69.133 l 193.25 70.441
 l 193.75 73.102 197.172 74.633 200.527 73.695 c 202.949 73.016 203.551 
72.168 203.551 69.418 c 203.555 67.121 l 198.383 66.246 l 188.445 64.57 
184.195 62.375 182.039 57.801 c 180.906 55.391 180.859 50.996 181.941 48.559
 c 183.289 45.512 186.594 43.148 190.426 42.48 c 194.32 41.805 199.922 43.137
 202.516 45.355 c 204.332 46.91 204.508 46.949 204.512 45.82 c 204.516 45.348
 204.621 44.578 204.746 44.105 c 204.969 43.273 205.113 43.25 209.922 43.25
 c 214.492 43.25 214.844 43.301 214.559 43.918 c h
203.328 55.797 m 202.848 53.555 201.168 51.398 199.293 50.613 c 198.613
 50.332 197.227 50.102 196.203 50.098 c 191.48 50.098 189.531 54.762 193.137
 57.43 c 194.035 58.098 202.113 60.742 203.27 60.754 c 203.871 60.758 203.898
 58.449 203.328 55.797 c h
203.328 55.797 m f
229.703 42.512 m 226.281 43.117 224.23 44.656 222.891 47.625 c 222.289 
48.965 222.191 50.559 222.086 60.852 c 221.965 72.555 l 216.656 72.555 l
 216.875 78.836 l 222.016 79.062 l 222.016 89.301 l 232.672 89.301 l 232.672
 79.023 l 239.141 79.023 l 239.141 72.586 l 232.859 72.367 l 232.75 63.613
 l 232.688 58.797 232.738 54.289 232.863 53.598 c 233.238 51.539 234.223
 50.863 236.855 50.863 c 239.137 50.863 l 239.137 42.488 l 237.332 42.484
 l 236.336 42.48 234.668 42.406 233.621 42.316 c 232.578 42.23 230.812 42.316
 229.703 42.512 c h
229.703 42.512 m f
318.082 56.184 m 317.855 56.188 316.891 55.188 315.938 53.961 c 313.867
 51.293 311.695 50.098 308.957 50.109 c 305.168 50.125 301.922 52.777 301.375
 56.301 c 301.238 57.18 301.039 58.203 300.938 58.566 c 300.762 59.191 301.531
 59.234 313.391 59.234 c 326.031 59.234 l 325.809 62.184 l 324.848 75.008
 316.965 81.949 305.297 80.25 c 297.676 79.141 292.84 74.625 291.066 66.965
 c 290.328 63.785 290.246 58.188 290.895 55.426 c 292.586 48.258 297.797
 43.539 305.176 42.496 c 309.727 41.852 314.41 42.613 318.34 44.648 c 321.008
 46.027 322.852 47.711 324.707 50.48 c 325.859 52.191 l 322.176 54.184 l
 320.156 55.281 318.312 56.18 318.082 56.184 c h
300.973 66.754 m 302.141 71.57 307.234 74.055 311.652 71.957 c 313.293 
71.18 314.82 69.043 315.137 67.09 c 315.363 65.707 l 300.719 65.707 l h
300.973 66.754 m f
122.008 61.422 m 122.105 79.598 l 132.535 79.809 l 132.762 76.012 l 134.41
 77.121 l 135.957 78.16 138.426 79.039 141.195 79.539 c 142.762 79.82 142.848
 79.551 142.848 74.48 c 142.848 70.379 l 139.898 69.918 l 138.277 69.664
 136.238 69.117 135.367 68.707 c 132.656 67.422 132.57 67.004 132.57 54.328
 c 132.57 43.25 l 121.91 43.25 l h
122.008 61.422 m f
243.328 61.527 m 243.328 79.809 l 253.797 79.598 l 253.895 61.422 l 253.992
 43.25 l 243.328 43.25 l h
243.328 61.527 m f
262.277 60.852 m 258.996 70.535 256.262 78.711 256.195 79.027 c 256.098
 79.512 256.938 79.613 261.648 79.699 c 265.898 79.781 267.258 79.691 267.391
 79.32 c 267.488 79.055 268.91 73.312 270.555 66.559 c 272.199 59.809 273.641
 54.289 273.758 54.289 c 273.875 54.293 275.352 59.988 277.043 66.945 c 
280.117 79.598 l 285.699 79.703 l 289.047 79.766 291.285 79.66 291.285 79.445
 c 291.285 79.246 289.039 72.52 286.297 64.496 c 283.551 56.473 280.793 
48.41 280.172 46.578 c 279.039 43.246 l 268.246 43.246 l h
262.277 60.852 m f
243.328 87.77 m 243.328 91.969 l 254.012 91.969 l 253.902 87.875 l 253.797
 83.785 l 243.328 83.574 l h
243.328 87.77 m f
Q Q
showpage
%%Trailer
end restore
%%EOF
